Implement probability averaging — LOP • CombineDistributions
…
...
additional arguments

    Value

vector of values for corresponding ret_quantiles of aggregate distribution

    Examples

dat <- expand.grid(id = c("A", "B"),
                   quantile = seq(0,1,0.01))
dat$value <- ifelse(dat$id == "A", qnorm(dat$quantile), qnorm(dat$quantile, 0,2))
LOP(dat$quantile, dat$value, dat$id, seq(0,1,0.05), NA)
#> # A tibble: 21 × 2
#>    quantile    value
#>       <dbl>    <dbl>
#>  1     0    -Inf    
#>  2     0.05  NaN    
#>  3     0.1    -1.90 
#>  4     0.15   -1.48 
#>  5     0.2    -1.17 
#>  6     0.25   -0.924
#>  7     0.3    -0.710
#>  8     0.35   -0.518
#>  9     0.4    -0.339
#> 10     0.45   -0.168
#> # ℹ 11 more rows
…
